PRA2 Visualització de Dades
…
# Seleccionem les columnes que ens interessen:
df_base <- df_dades_municipi_2019 |> select(idMunicipi:idAT)

# Ensenyem el resultat:
df_base

## # A tibble: 947 × 6
##    idMunicipi nomMunicipi            idComarca nomComarca      nomAT       idAT 
##    <chr>      <chr>                  <chr>     <chr>           <chr>       <chr>
##  1 080018     Abrera                 11        Baix Llobregat  Metropolità AT01 
##  2 080023     Aguilar de Segarra     07        Bages           Comarques … AT06 
##  3 080039     Alella                 21        Maresme         Metropolità AT01 
##  4 080044     Alpens                 24        Osona           Comarques … AT06 
##  5 080057     Ametlla del Vallès, l' 41        Vallès Oriental Metropolità AT01 
##  6 080060     Arenys de Mar          21        Maresme         Metropolità AT01 
##  7 080076     Arenys de Munt         21        Maresme         Metropolità AT01 
##  8 080082     Argençola              06        Anoia           Penedès     AT08 
##  9 080095     Argentona              21        Maresme         Metropolità AT01 
## 10 080109     Artés                  07        Bages           Comarques … AT06 
## # ℹ 937 more rows
…
write.csv(df_con_longer, "data/competencies_per_nivell_tableau.csv")

Pel que fa al que ens preguntàvem sobre la relació amb l’origen dels
seus habitants, tenim dades d’origen dels habitants des del 2000 al 2019
al subconjunt de dades que hem anomenat com df_origen. Com
les dades més recents de coneixement de català a nivell municipal que
tenim són del 2011, filtrarem per aquest any en els dos casos i unirem
les dades:

df_ori <- df_origen |> filter(any == 2011)
df_con_cat_2011 <- df_con_cat |> filter(any == 2011)
df_con_ori_2011 <- left_join(df_con_cat_2011, df_ori)
df_con_ori_2011

## # A tibble: 947 × 31
## # Groups:   any [1]
##      any idMunicipi nomMunicipi idComarca nomComarca nomAT idAT  entendre parlar
##    <dbl> <chr>      <chr>       <chr>     <chr>      <chr> <chr>    <dbl>  <dbl>
##  1  2011 080018     Abrera      11        Baix Llob… Metr… AT01     10796   7703
##  2  2011 080023     Aguilar de… 07        Bages      Coma… AT06        NA     NA
##  3  2011 080039     Alella      21        Maresme    Metr… AT01      8923   7696
##  4  2011 080044     Alpens      24        Osona      Coma… AT06       287    275
##  5  2011 080057     Ametlla de… 41        Vallès Or… Metr… AT01      7807   6913
##  6  2011 080060     Arenys de … 21        Maresme    Metr… AT01     13987  11919
##  7  2011 080076     Arenys de … 21        Maresme    Metr… AT01      8134   7235
##  8  2011 080082     Argençola   06        Anoia      Pene… AT08       240    213
##  9  2011 080095     Argentona   21        Maresme    Metr… AT01     11307   9683
## 10  2011 080109     Artés       07        Bages      Coma… AT06      5233   4621
## # ℹ 937 more rows
## # ℹ 22 more variables: llegir <dbl>, escriure <dbl>,
## #   poblacio_2_anys_i_mes <dbl>, entendre_pct <dbl>, parlar_pct <dbl>,
## #   llegir_pct <dbl>, escriure_pct <dbl>, entendre_com <dbl>, parlar_com <dbl>,
## #   llegir_com <dbl>, escriure_com <dbl>, entendre_at <dbl>, parlar_at <dbl>,
## #   llegir_at <dbl>, escriure_at <dbl>, entendre_cat <dbl>, parlar_cat <dbl>,
## #   llegir_cat <dbl>, escriure_cat <dbl>, catalunya <dbl>, restaEstat <dbl>, …
…
